{
  "Rising Pune Supergiants": 111,
  "Mumbai Indians": 103,
  "Kolkata Knight Riders": 123,
  "Delhi Daredevils": 107,
  "Gujarat Lions": 99,
  "Kings XI Punjab": 101,
  "Sunrisers Hyderabad": 108,
  "Royal Challengers Bangalore": 161
}