{
  "Sunrisers Hyderabad": {
    "2013": 11,
    "2014": 7,
    "2015": 8,
    "2016": 12,
    "2017": 9
  },
  "Rising Pune Supergiant": {
    "2017": 11
  },
  "Kolkata Knight Riders": {
    "2008": 7,
    "2009": 4,
    "2010": 8,
    "2011": 9,
    "2012": 13,
    "2013": 7,
    "2014": 12,
    "2015": 8,
    "2016": 9,
    "2017": 10
  },
  "Kings XI Punjab": {
    "2008": 11,
    "2009": 8,
    "2010": 5,
    "2011": 8,
    "2012": 9,
    "2013": 9,
    "2014": 13,
    "2015": 4,
    "2016": 5,
    "2017": 8
  },
  "Royal Challengers Bangalore": {
    "2008": 5,
    "2009": 10,
    "2010": 9,
    "2011": 11,
    "2012": 9,
    "2013": 10,
    "2014": 6,
    "2015": 9,
    "2016": 10,
    "2017": 4
  },
  "Mumbai Indians": {
    "2008": 8,
    "2009": 6,
    "2010": 12,
    "2011": 11,
    "2012": 11,
    "2013": 14,
    "2014": 8,
    "2015": 11,
    "2016": 8,
    "2017": 13
  },
  "Delhi Daredevils": {
    "2008": 8,
    "2009": 11,
    "2010": 8,
    "2011": 5,
    "2012": 12,
    "2013": 4,
    "2014": 3,
    "2015": 6,
    "2016": 8,
    "2017": 7
  },
  "Gujarat Lions": {
    "2016": 10,
    "2017": 5
  },
  "Chennai Super Kings": {
    "2008": 10,
    "2009": 9,
    "2010": 10,
    "2011": 12,
    "2012": 11,
    "2013": 13,
    "2014": 11,
    "2015": 11
  },
  "Rajasthan Royals": {
    "2008": 14,
    "2009": 7,
    "2010": 7,
    "2011": 7,
    "2012": 8,
    "2013": 12,
    "2014": 8,
    "2015": 8
  },
  "Deccan Chargers": {
    "2008": 3,
    "2009": 10,
    "2010": 9,
    "2011": 7,
    "2012": 5
  },
  "Pune Warriors": {
    "2011": 5,
    "2012": 5,
    "2013": 5
  },
  "Kochi Tuskers Kerala": {
    "2011": 7
  },
  "": {
    "2011": 2,
    "2015": 3
  },
  "Rising Pune Supergiants": {
    "2016": 6
  }
}